2 데이터 전처리 | ADPStudy
…
2.4.2.4 group_by 와 summarise

Q1. Cars93 데이터의 제조사별 가격의 평균과 무게의 최댓값을 산출한 뒤 변수명을 각각 mean_Price, max_Weight로 지정하여 출력해 보자.

Cars93 %>% group_by(Manufacturer) %>% 
  summarise(mean_Price=mean(Price), max_Weight=max(Weight))

## # A tibble: 32 x 3
##    Manufacturer mean_Price max_Weight
##    <fct>             <dbl>      <int>
##  1 Acura              24.9       3560
##  2 Audi               33.4       3405
##  3 BMW                30         3640
##  4 Buick              21.6       4105
##  5 Cadillac           37.4       3935
##  6 Chevrolet          18.2       4025
##  7 Chrylser           18.4       3515
##  8 Chrysler           22.6       3570
##  9 Dodge              15.7       3805
## 10 Eagle              15.8       3490
## # … with 22 more rows
…
2.4.2.6 arrange

arrange는 특정열 기준으로 데이터를 정렬해주는 함수이며, 사용법은 아래와 같다.

Q. Cars93 데이터에서 종류가 “Midsize” 혹은 “Small”인 데이터의 Model, Type, Weight, Price 변수들만 추출한 뒤, 종류별로 Weight 변수값들이 Weight의 중앙값보다 작은 경우는 “low”, 중앙값 이상인 경우 “high” 값을 갖는 Weight_lv 변수를 생성하라. 그리고 Price 변수를 기준으로 데이터를 오름차순으로 정렬하여 출력하라.

Cars93 %>%
  filter(Type %in% c("Midsize", "Small")) %>%
  dplyr::select(Model, Type, Weight, Price) %>%
  group_by(Type) %>%
  mutate(Weight_lv = ifelse(Weight < median(Weight), "low", "high")) %>%
  arrange(Price)

## # A tibble: 43 x 5
## # Groups:   Type [2]
##    Model   Type  Weight Price Weight_lv
##    <fct>   <fct>  <int> <dbl> <chr>    
##  1 Festiva Small   1845   7.4 low      
##  2 Excel   Small   2345   8   high     
##  3 323     Small   2325   8.3 low      
##  4 Metro   Small   1695   8.4 low      
##  5 Justy   Small   2045   8.4 low      
##  6 Swift   Small   1965   8.6 low      
##  7 LeMans  Small   2350   9   high     
##  8 Fox     Small   2240   9.1 low      
##  9 Colt    Small   2270   9.2 low      
## 10 Tercel  Small   2055   9.8 low      
## # … with 33 more rows
…
